allow_in_place_tablespaces	bool	off	\N	\N	\N	\N
allow_system_table_mods	bool	off	\N	\N	\N	\N
application_name	string		\N	\N	\N	\N
archive_cleanup_command	string		\N	\N	\N	\N
archive_command	string		\N	\N	\N	\N
archive_mode	enum	off	\N	\N	\N	{always,on,off}
archive_timeout	integer	0	s	0	1073741823	\N
array_nulls	bool	on	\N	\N	\N	\N
authentication_timeout	integer	60	s	1	600	\N
autovacuum	bool	on	\N	\N	\N	\N
autovacuum_analyze_scale_factor	real	0.1	\N	0	100	\N
autovacuum_analyze_threshold	integer	50	\N	0	2147483647	\N
autovacuum_freeze_max_age	integer	200000000	\N	100000	2000000000	\N
autovacuum_max_workers	integer	3	\N	1	262143	\N
autovacuum_multixact_freeze_max_age	integer	400000000	\N	10000	2000000000	\N
autovacuum_naptime	integer	60	s	1	2147483	\N
autovacuum_vacuum_cost_delay	real	2	ms	-1	100	\N
autovacuum_vacuum_cost_limit	integer	-1	\N	-1	10000	\N
autovacuum_vacuum_insert_scale_factor	real	0.2	\N	0	100	\N
autovacuum_vacuum_insert_threshold	integer	1000	\N	-1	2147483647	\N
autovacuum_vacuum_scale_factor	real	0.2	\N	0	100	\N
autovacuum_vacuum_threshold	integer	50	\N	0	2147483647	\N
autovacuum_work_mem	integer	-1	kB	-1	2147483647	\N
backend_flush_after	integer	0	8kB	0	256	\N
backslash_quote	enum	safe_encoding	\N	\N	\N	{safe_encoding,on,off}
backtrace_functions	string		\N	\N	\N	\N
bgwriter_delay	integer	200	ms	10	10000	\N
bgwriter_flush_after	integer	64	8kB	0	256	\N
bgwriter_lru_maxpages	integer	100	\N	0	1073741823	\N
bgwriter_lru_multiplier	real	2	\N	0	10	\N
bonjour	bool	off	\N	\N	\N	\N
bonjour_name	string		\N	\N	\N	\N
bytea_output	enum	hex	\N	\N	\N	{escape,hex}
check_function_bodies	bool	on	\N	\N	\N	\N
checkpoint_completion_target	real	0.9	\N	0	1	\N
checkpoint_flush_after	integer	32	8kB	0	256	\N
checkpoint_timeout	integer	300	s	30	86400	\N
checkpoint_warning	integer	30	s	0	2147483647	\N
client_connection_check_interval	integer	0	ms	0	2147483647	\N
client_encoding	string	SQL_ASCII	\N	\N	\N	\N
client_min_messages	enum	notice	\N	\N	\N	{debug5,debug4,debug3,debug2,debug1,log,notice,warning,error}
cluster_name	string		\N	\N	\N	\N
commit_delay	integer	0	\N	0	100000	\N
commit_siblings	integer	5	\N	0	1000	\N
compute_query_id	enum	auto	\N	\N	\N	{auto,regress,on,off}
config_file	string	\N	\N	\N	\N	\N
constraint_exclusion	enum	partition	\N	\N	\N	{partition,on,off}
cpu_index_tuple_cost	real	0.005	\N	0	1.79769e+308	\N
cpu_operator_cost	real	0.0025	\N	0	1.79769e+308	\N
cpu_tuple_cost	real	0.01	\N	0	1.79769e+308	\N
cursor_tuple_fraction	real	0.1	\N	0	1	\N
data_directory	string	\N	\N	\N	\N	\N
data_sync_retry	bool	off	\N	\N	\N	\N
DateStyle	string	ISO, MDY	\N	\N	\N	\N
db_user_namespace	bool	off	\N	\N	\N	\N
deadlock_timeout	integer	1000	ms	1	2147483647	\N
debug_discard_caches	integer	0	\N	0	0	\N
debug_pretty_print	bool	on	\N	\N	\N	\N
debug_print_parse	bool	off	\N	\N	\N	\N
debug_print_plan	bool	off	\N	\N	\N	\N
debug_print_rewritten	bool	off	\N	\N	\N	\N
default_statistics_target	integer	100	\N	1	10000	\N
default_table_access_method	string	heap	\N	\N	\N	\N
default_tablespace	string		\N	\N	\N	\N
default_text_search_config	string	pg_catalog.simple	\N	\N	\N	\N
default_toast_compression	enum	pglz	\N	\N	\N	{pglz,lz4}
default_transaction_deferrable	bool	off	\N	\N	\N	\N
default_transaction_isolation	enum	read committed	\N	\N	\N	{serializable,"repeatable read","read committed","read uncommitted"}
default_transaction_read_only	bool	off	\N	\N	\N	\N
dynamic_library_path	string	$libdir	\N	\N	\N	\N
dynamic_shared_memory_type	enum	posix	\N	\N	\N	{posix,sysv,mmap}
effective_cache_size	integer	524288	8kB	1	2147483647	\N
effective_io_concurrency	integer	1	\N	0	1000	\N
enable_async_append	bool	on	\N	\N	\N	\N
enable_bitmapscan	bool	on	\N	\N	\N	\N
enable_gathermerge	bool	on	\N	\N	\N	\N
enable_hashagg	bool	on	\N	\N	\N	\N
enable_hashjoin	bool	on	\N	\N	\N	\N
enable_incremental_sort	bool	on	\N	\N	\N	\N
enable_indexonlyscan	bool	on	\N	\N	\N	\N
enable_indexscan	bool	on	\N	\N	\N	\N
enable_material	bool	on	\N	\N	\N	\N
enable_memoize	bool	on	\N	\N	\N	\N
enable_mergejoin	bool	on	\N	\N	\N	\N
enable_nestloop	bool	on	\N	\N	\N	\N
enable_parallel_append	bool	on	\N	\N	\N	\N
enable_parallel_hash	bool	on	\N	\N	\N	\N
enable_partition_pruning	bool	on	\N	\N	\N	\N
enable_partitionwise_aggregate	bool	off	\N	\N	\N	\N
enable_partitionwise_join	bool	off	\N	\N	\N	\N
enable_seqscan	bool	on	\N	\N	\N	\N
enable_sort	bool	on	\N	\N	\N	\N
enable_tidscan	bool	on	\N	\N	\N	\N
escape_string_warning	bool	on	\N	\N	\N	\N
event_source	string	PostgreSQL	\N	\N	\N	\N
exit_on_error	bool	off	\N	\N	\N	\N
external_pid_file	string	\N	\N	\N	\N	\N
extra_float_digits	integer	1	\N	-15	3	\N
force_parallel_mode	enum	off	\N	\N	\N	{off,on,regress}
from_collapse_limit	integer	8	\N	1	2147483647	\N
fsync	bool	on	\N	\N	\N	\N
full_page_writes	bool	on	\N	\N	\N	\N
geqo	bool	on	\N	\N	\N	\N
geqo_effort	integer	5	\N	1	10	\N
geqo_generations	integer	0	\N	0	2147483647	\N
geqo_pool_size	integer	0	\N	0	2147483647	\N
geqo_seed	real	0	\N	0	1	\N
geqo_selection_bias	real	2	\N	1.5	2	\N
geqo_threshold	integer	12	\N	2	2147483647	\N
gin_fuzzy_search_limit	integer	0	\N	0	2147483647	\N
gin_pending_list_limit	integer	4096	kB	64	2147483647	\N
hash_mem_multiplier	real	1	\N	1	1000	\N
hba_file	string	\N	\N	\N	\N	\N
hot_standby	bool	on	\N	\N	\N	\N
hot_standby_feedback	bool	off	\N	\N	\N	\N
huge_pages	enum	try	\N	\N	\N	{off,on,try}
huge_page_size	integer	0	kB	0	2147483647	\N
ident_file	string	\N	\N	\N	\N	\N
idle_in_transaction_session_timeout	integer	0	ms	0	2147483647	\N
idle_session_timeout	integer	0	ms	0	2147483647	\N
ignore_checksum_failure	bool	off	\N	\N	\N	\N
ignore_invalid_pages	bool	off	\N	\N	\N	\N
ignore_system_indexes	bool	off	\N	\N	\N	\N
IntervalStyle	enum	postgres	\N	\N	\N	{postgres,postgres_verbose,sql_standard,iso_8601}
jit	bool	on	\N	\N	\N	\N
jit_above_cost	real	100000	\N	-1	1.79769e+308	\N
jit_debugging_support	bool	off	\N	\N	\N	\N
jit_dump_bitcode	bool	off	\N	\N	\N	\N
jit_expressions	bool	on	\N	\N	\N	\N
jit_inline_above_cost	real	500000	\N	-1	1.79769e+308	\N
jit_optimize_above_cost	real	500000	\N	-1	1.79769e+308	\N
jit_profiling_support	bool	off	\N	\N	\N	\N
jit_provider	string	llvmjit	\N	\N	\N	\N
jit_tuple_deforming	bool	on	\N	\N	\N	\N
join_collapse_limit	integer	8	\N	1	2147483647	\N
krb_caseins_users	bool	off	\N	\N	\N	\N
krb_server_keyfile	string	FILE:/etc/postgresql-common/krb5.keytab	\N	\N	\N	\N
lc_messages	string		\N	\N	\N	\N
lc_monetary	string	C	\N	\N	\N	\N
lc_numeric	string	C	\N	\N	\N	\N
lc_time	string	C	\N	\N	\N	\N
listen_addresses	string	localhost	\N	\N	\N	\N
local_preload_libraries	string		\N	\N	\N	\N
lock_timeout	integer	0	ms	0	2147483647	\N
lo_compat_privileges	bool	off	\N	\N	\N	\N
log_autovacuum_min_duration	integer	-1	ms	-1	2147483647	\N
log_checkpoints	bool	off	\N	\N	\N	\N
log_connections	bool	off	\N	\N	\N	\N
log_destination	string	stderr	\N	\N	\N	\N
log_directory	string	log	\N	\N	\N	\N
log_disconnections	bool	off	\N	\N	\N	\N
log_duration	bool	off	\N	\N	\N	\N
log_error_verbosity	enum	default	\N	\N	\N	{terse,default,verbose}
log_executor_stats	bool	off	\N	\N	\N	\N
log_file_mode	integer	384	\N	0	511	\N
log_filename	string	postgresql-%Y-%m-%d_%H%M%S.log	\N	\N	\N	\N
logging_collector	bool	off	\N	\N	\N	\N
log_hostname	bool	off	\N	\N	\N	\N
logical_decoding_work_mem	integer	65536	kB	64	2147483647	\N
log_line_prefix	string	%m [%p] 	\N	\N	\N	\N
log_lock_waits	bool	off	\N	\N	\N	\N
log_min_duration_sample	integer	-1	ms	-1	2147483647	\N
log_min_duration_statement	integer	-1	ms	-1	2147483647	\N
log_min_error_statement	enum	error	\N	\N	\N	{debug5,debug4,debug3,debug2,debug1,info,notice,warning,error,log,fatal,panic}
log_min_messages	enum	warning	\N	\N	\N	{debug5,debug4,debug3,debug2,debug1,info,notice,warning,error,log,fatal,panic}
log_parameter_max_length	integer	-1	B	-1	1073741823	\N
log_parameter_max_length_on_error	integer	0	B	-1	1073741823	\N
log_parser_stats	bool	off	\N	\N	\N	\N
log_planner_stats	bool	off	\N	\N	\N	\N
log_recovery_conflict_waits	bool	off	\N	\N	\N	\N
log_replication_commands	bool	off	\N	\N	\N	\N
log_rotation_age	integer	1440	min	0	35791394	\N
log_rotation_size	integer	10240	kB	0	2097151	\N
log_statement	enum	none	\N	\N	\N	{none,ddl,mod,all}
log_statement_sample_rate	real	1	\N	0	1	\N
log_statement_stats	bool	off	\N	\N	\N	\N
log_temp_files	integer	-1	kB	-1	2147483647	\N
log_timezone	string	GMT	\N	\N	\N	\N
log_transaction_sample_rate	real	0	\N	0	1	\N
log_truncate_on_rotation	bool	off	\N	\N	\N	\N
maintenance_io_concurrency	integer	10	\N	0	1000	\N
maintenance_work_mem	integer	65536	kB	1024	2147483647	\N
max_connections	integer	100	\N	1	262143	\N
max_files_per_process	integer	1000	\N	64	2147483647	\N
max_locks_per_transaction	integer	64	\N	10	2147483647	\N
max_logical_replication_workers	integer	4	\N	0	262143	\N
max_parallel_maintenance_workers	integer	2	\N	0	1024	\N
max_parallel_workers	integer	8	\N	0	1024	\N
max_parallel_workers_per_gather	integer	2	\N	0	1024	\N
max_pred_locks_per_page	integer	2	\N	0	2147483647	\N
max_pred_locks_per_relation	integer	-2	\N	-2147483648	2147483647	\N
max_pred_locks_per_transaction	integer	64	\N	10	2147483647	\N
max_prepared_transactions	integer	0	\N	0	262143	\N
max_replication_slots	integer	10	\N	0	262143	\N
max_slot_wal_keep_size	integer	-1	MB	-1	2147483647	\N
max_stack_depth	integer	100	kB	100	2147483647	\N
max_standby_archive_delay	integer	30000	ms	-1	2147483647	\N
max_standby_streaming_delay	integer	30000	ms	-1	2147483647	\N
max_sync_workers_per_subscription	integer	2	\N	0	262143	\N
max_wal_senders	integer	10	\N	0	262143	\N
max_wal_size	integer	1024	MB	2	2147483647	\N
max_worker_processes	integer	8	\N	0	262143	\N
min_dynamic_shared_memory	integer	0	MB	0	2147483647	\N
min_parallel_index_scan_size	integer	64	8kB	0	715827882	\N
min_parallel_table_scan_size	integer	1024	8kB	0	715827882	\N
min_wal_size	integer	80	MB	2	2147483647	\N
old_snapshot_threshold	integer	-1	min	-1	86400	\N
parallel_leader_participation	bool	on	\N	\N	\N	\N
parallel_setup_cost	real	1000	\N	0	1.79769e+308	\N
parallel_tuple_cost	real	0.1	\N	0	1.79769e+308	\N
password_encryption	enum	scram-sha-256	\N	\N	\N	{md5,scram-sha-256}
plan_cache_mode	enum	auto	\N	\N	\N	{auto,force_generic_plan,force_custom_plan}
port	integer	5432	\N	1	65535	\N
post_auth_delay	integer	0	s	0	2147	\N
pre_auth_delay	integer	0	s	0	60	\N
primary_conninfo	string		\N	\N	\N	\N
primary_slot_name	string		\N	\N	\N	\N
promote_trigger_file	string		\N	\N	\N	\N
quote_all_identifiers	bool	off	\N	\N	\N	\N
random_page_cost	real	4	\N	0	1.79769e+308	\N
recovery_end_command	string		\N	\N	\N	\N
recovery_init_sync_method	enum	fsync	\N	\N	\N	{fsync,syncfs}
recovery_min_apply_delay	integer	0	ms	0	2147483647	\N
recovery_target	string		\N	\N	\N	\N
recovery_target_action	enum	pause	\N	\N	\N	{pause,promote,shutdown}
recovery_target_inclusive	bool	on	\N	\N	\N	\N
recovery_target_lsn	string		\N	\N	\N	\N
recovery_target_name	string		\N	\N	\N	\N
recovery_target_time	string		\N	\N	\N	\N
recovery_target_timeline	string	latest	\N	\N	\N	\N
recovery_target_xid	string		\N	\N	\N	\N
remove_temp_files_after_crash	bool	on	\N	\N	\N	\N
restart_after_crash	bool	on	\N	\N	\N	\N
restore_command	string		\N	\N	\N	\N
restrict_nonsystem_relation_kind	string		\N	\N	\N	\N
row_security	bool	on	\N	\N	\N	\N
search_path	string	"$user", public	\N	\N	\N	\N
seq_page_cost	real	1	\N	0	1.79769e+308	\N
session_preload_libraries	string		\N	\N	\N	\N
session_replication_role	enum	origin	\N	\N	\N	{origin,replica,local}
shared_buffers	integer	1024	8kB	16	1073741823	\N
shared_memory_type	enum	mmap	\N	\N	\N	{sysv,mmap}
shared_preload_libraries	string		\N	\N	\N	\N
ssl	bool	off	\N	\N	\N	\N
ssl_ca_file	string		\N	\N	\N	\N
ssl_cert_file	string	server.crt	\N	\N	\N	\N
ssl_ciphers	string	HIGH:MEDIUM:+3DES:!aNULL	\N	\N	\N	\N
ssl_crl_dir	string		\N	\N	\N	\N
ssl_crl_file	string		\N	\N	\N	\N
ssl_dh_params_file	string		\N	\N	\N	\N
ssl_ecdh_curve	string	prime256v1	\N	\N	\N	\N
ssl_key_file	string	server.key	\N	\N	\N	\N
ssl_max_protocol_version	enum		\N	\N	\N	{"",TLSv1,TLSv1.1,TLSv1.2,TLSv1.3}
ssl_min_protocol_version	enum	TLSv1.2	\N	\N	\N	{TLSv1,TLSv1.1,TLSv1.2,TLSv1.3}
ssl_passphrase_command	string		\N	\N	\N	\N
ssl_passphrase_command_supports_reload	bool	off	\N	\N	\N	\N
ssl_prefer_server_ciphers	bool	on	\N	\N	\N	\N
standard_conforming_strings	bool	on	\N	\N	\N	\N
statement_timeout	integer	0	ms	0	2147483647	\N
stats_temp_directory	string	pg_stat_tmp	\N	\N	\N	\N
superuser_reserved_connections	integer	3	\N	0	262143	\N
synchronize_seqscans	bool	on	\N	\N	\N	\N
synchronous_commit	enum	on	\N	\N	\N	{local,remote_write,remote_apply,on,off}
synchronous_standby_names	string		\N	\N	\N	\N
syslog_facility	enum	local0	\N	\N	\N	{local0,local1,local2,local3,local4,local5,local6,local7}
syslog_ident	string	postgres	\N	\N	\N	\N
syslog_sequence_numbers	bool	on	\N	\N	\N	\N
syslog_split_messages	bool	on	\N	\N	\N	\N
tcp_keepalives_count	integer	0	\N	0	2147483647	\N
tcp_keepalives_idle	integer	0	s	0	2147483647	\N
tcp_keepalives_interval	integer	0	s	0	2147483647	\N
tcp_user_timeout	integer	0	ms	0	2147483647	\N
temp_buffers	integer	1024	8kB	100	1073741823	\N
temp_file_limit	integer	-1	kB	-1	2147483647	\N
temp_tablespaces	string		\N	\N	\N	\N
TimeZone	string	GMT	\N	\N	\N	\N
timezone_abbreviations	string	\N	\N	\N	\N	\N
trace_notify	bool	off	\N	\N	\N	\N
trace_recovery_messages	enum	log	\N	\N	\N	{debug5,debug4,debug3,debug2,debug1,log,notice,warning,error}
trace_sort	bool	off	\N	\N	\N	\N
track_activities	bool	on	\N	\N	\N	\N
track_activity_query_size	integer	1024	B	100	1048576	\N
track_commit_timestamp	bool	off	\N	\N	\N	\N
track_counts	bool	on	\N	\N	\N	\N
track_functions	enum	none	\N	\N	\N	{none,pl,all}
track_io_timing	bool	off	\N	\N	\N	\N
track_wal_io_timing	bool	off	\N	\N	\N	\N
transaction_deferrable	bool	off	\N	\N	\N	\N
transaction_isolation	enum	read committed	\N	\N	\N	{serializable,"repeatable read","read committed","read uncommitted"}
transaction_read_only	bool	off	\N	\N	\N	\N
transform_null_equals	bool	off	\N	\N	\N	\N
unix_socket_directories	string	/var/run/postgresql	\N	\N	\N	\N
unix_socket_group	string		\N	\N	\N	\N
unix_socket_permissions	integer	511	\N	0	511	\N
update_process_title	bool	on	\N	\N	\N	\N
vacuum_cost_delay	real	0	ms	0	100	\N
vacuum_cost_limit	integer	200	\N	1	10000	\N
vacuum_cost_page_dirty	integer	20	\N	0	10000	\N
vacuum_cost_page_hit	integer	1	\N	0	10000	\N
vacuum_cost_page_miss	integer	2	\N	0	10000	\N
vacuum_defer_cleanup_age	integer	0	\N	0	1000000	\N
vacuum_failsafe_age	integer	1600000000	\N	0	2100000000	\N
vacuum_freeze_min_age	integer	50000000	\N	0	1000000000	\N
vacuum_freeze_table_age	integer	150000000	\N	0	2000000000	\N
vacuum_multixact_failsafe_age	integer	1600000000	\N	0	2100000000	\N
vacuum_multixact_freeze_min_age	integer	5000000	\N	0	1000000000	\N
vacuum_multixact_freeze_table_age	integer	150000000	\N	0	2000000000	\N
wal_buffers	integer	-1	8kB	-1	262143	\N
wal_compression	bool	off	\N	\N	\N	\N
wal_consistency_checking	string		\N	\N	\N	\N
wal_init_zero	bool	on	\N	\N	\N	\N
wal_keep_size	integer	0	MB	0	2147483647	\N
wal_level	enum	replica	\N	\N	\N	{minimal,replica,logical}
wal_log_hints	bool	off	\N	\N	\N	\N
wal_receiver_create_temp_slot	bool	off	\N	\N	\N	\N
wal_receiver_status_interval	integer	10	s	0	2147483	\N
wal_receiver_timeout	integer	60000	ms	0	2147483647	\N
wal_recycle	bool	on	\N	\N	\N	\N
wal_retrieve_retry_interval	integer	5000	ms	1	2147483647	\N
wal_sender_timeout	integer	60000	ms	0	2147483647	\N
wal_skip_threshold	integer	2048	kB	0	2147483647	\N
wal_sync_method	enum	fdatasync	\N	\N	\N	{fsync,fdatasync,open_sync,open_datasync}
wal_writer_delay	integer	200	ms	1	10000	\N
wal_writer_flush_after	integer	128	8kB	0	2147483647	\N
work_mem	integer	4096	kB	64	2147483647	\N
xmlbinary	enum	base64	\N	\N	\N	{base64,hex}
xmloption	enum	content	\N	\N	\N	{content,document}
zero_damaged_pages	bool	off	\N	\N	\N	\N
